// Jest Snapshot v1, https://goo.gl/fbAQLP

exports[`UI DateHeader date header matches snapshot 1`] = `
<div
  className="d-none d-md-block"
>
  <div
    className="row"
  >
    <div
      className="col-3"
    >
       
    </div>
    <div
      className="col"
    >
      <small
        className="d-none d-lg-block"
        data-test="day-header"
      >
        1/1/2018
      </small>
    </div>
    <div
      className="col"
    >
      <small
        className="d-none d-lg-block"
        data-test="day-header"
      >
        1/2/2018
      </small>
    </div>
    <div
      className="col"
    >
      <small
        className="d-none d-lg-block"
        data-test="day-header"
      >
        1/3/2018
      </small>
    </div>
    <div
      className="col"
    >
      <small
        className="d-none d-lg-block"
        data-test="day-header"
      >
        1/4/2018
      </small>
    </div>
    <div
      className="col"
    >
      <small
        className="d-none d-lg-block"
        data-test="day-header"
      >
        1/5/2018
      </small>
    </div>
    <div
      className="col"
    >
      <small
        className="d-none d-lg-block"
        data-test="day-header"
      >
        1/6/2018
      </small>
    </div>
    <div
      className="col"
    >
      <small
        className="d-none d-lg-block"
        data-test="day-header"
      >
        1/7/2018
      </small>
    </div>
    <div
      className="col"
    >
      <small>
        sum
      </small>
      <small>
         
      </small>
    </div>
    <div
      className="col"
    >
      <small>
         
      </small>
      <small>
         
      </small>
    </div>
  </div>
</div>
`;
